Inspect • seahtrue
…
Rate data

The rate_data is what scientist typically use for their
interpretation of their XF experiments. It contains the calculated OCR
(oxygen consumption rate) and ECAR (extracellular acidification rate)
values, together with the PER (proton efflux rate). The PER is
calculated from ECAR when the buffer capacity is known and set in the
experiment. In our rate_data we only have the OCR and ECAR
data, since PER can be easily calculated.

revive_output_donor_A %>%  
  purrr::pluck("rate_data", 1)
#> # A tibble: 1,140 × 10
#>    measurement well  group time_wave OCR_wave OCR_wave_bc ECAR_wave ECAR_wave_bc
#>          <dbl> <chr> <chr>     <dbl>    <dbl>       <dbl>     <dbl>        <dbl>
#>  1           1 A01   Back…      1.31        0        0            0         0   
#>  2           1 A02   50.0…      1.31        0        6.22         0         2.90
#>  3           1 A03   100.…      1.31        0       26.6          0         5.87
#>  4           1 A04   100.…      1.31        0       21.4          0         4.40
#>  5           1 A05   150.…      1.31        0        3.08         0        12.4 
#>  6           1 A06   200.…      1.31        0       41.1          0         8.98
#>  7           1 A07   150.…      1.31        0       39.5          0         9.27
#>  8           1 A08   200.…      1.31        0       40.4          0         4.75
#>  9           1 A09   250.…      1.31        0       58.8          0         7.39
#> 10           1 A10   250.…      1.31        0       59.4          0         6.88
#> # ℹ 1,130 more rows
#> # ℹ 2 more variables: cell_n <dbl>, flagged_well <lgl>
…
The raw_data tibble contains the raw data that is
collected in an XF experiment. This is essential data that can give
detailed insights on the quality of the assay. Apart from the data that
is presented in the raw data sheet of the .xlsx, some preprocessing
output is given. Such as the timescale in seconds
(timescale) and minutes (minutes), as well as
an interval and injection id. Also, the
background corrected raw data values for pH, O2 and its emissions are
given. Again, just like in the rate_data tibble, the
cell_n and flagged_well status is given.

revive_output_donor_A %>%  
  purrr::pluck("raw_data", 1)
#> # A tibble: 13,824 × 21
#>    well  measurement  tick timescale minutes group interval injection O2_em_corr
#>    <chr>       <dbl> <dbl>     <dbl>   <dbl> <chr>    <dbl> <chr>          <dbl>
#>  1 A01             1     0         0       0 Back…        1 Baseline      12422.
#>  2 A02             1     0         0       0 50.0…        1 Baseline      12323.
#>  3 A03             1     0         0       0 100.…        1 Baseline      12483.
#>  4 A04             1     0         0       0 100.…        1 Baseline      12362.
#>  5 A05             1     0         0       0 150.…        1 Baseline      12103.
#>  6 A06             1     0         0       0 200.…        1 Baseline      12274.
#>  7 A07             1     0         0       0 150.…        1 Baseline      12354.
#>  8 A08             1     0         0       0 200.…        1 Baseline      12325.
#>  9 A09             1     0         0       0 250.…        1 Baseline      12347.
#> 10 A10             1     0         0       0 250.…        1 Baseline      12209.
#> # ℹ 13,814 more rows
#> # ℹ 12 more variables: pH_em_corr <dbl>, O2_mmHg <dbl>, pH <dbl>,
#> #   pH_em_corr_corr <dbl>, O2_em_corr_bkg <dbl>, pH_em_corr_bkg <dbl>,
#> #   O2_mmHg_bkg <dbl>, pH_bkgd <dbl>, pH_em_corr_corr_bkg <dbl>,
#> #   bufferfactor <dbl>, cell_n <dbl>, flagged_well <lgl>
…
