Plot • seahtrue
…
Next, we can unnest particular data tibbles which combines the data
of the three plates into one tibble.

revived_donors %>% 
  select(plate_id, "raw_data") %>% 
  tidyr::unnest(raw_data)
#> # A tibble: 41,472 × 22
#>    plate_id   well  measurement  tick timescale minutes group interval injection
#>    <chr>      <chr>       <dbl> <dbl>     <dbl>   <dbl> <chr>    <dbl> <chr>    
#>  1 V01744164… A01             1     0         0       0 Back…        1 Baseline 
#>  2 V01744164… A02             1     0         0       0 50.0…        1 Baseline 
#>  3 V01744164… A03             1     0         0       0 100.…        1 Baseline 
#>  4 V01744164… A04             1     0         0       0 100.…        1 Baseline 
#>  5 V01744164… A05             1     0         0       0 150.…        1 Baseline 
#>  6 V01744164… A06             1     0         0       0 200.…        1 Baseline 
#>  7 V01744164… A07             1     0         0       0 150.…        1 Baseline 
#>  8 V01744164… A08             1     0         0       0 200.…        1 Baseline 
#>  9 V01744164… A09             1     0         0       0 250.…        1 Baseline 
#> 10 V01744164… A10             1     0         0       0 250.…        1 Baseline 
#> # ℹ 41,462 more rows
#> # ℹ 13 more variables: O2_em_corr <dbl>, pH_em_corr <dbl>, O2_mmHg <dbl>,
#> #   pH <dbl>, pH_em_corr_corr <dbl>, O2_em_corr_bkg <dbl>,
#> #   pH_em_corr_bkg <dbl>, O2_mmHg_bkg <dbl>, pH_bkgd <dbl>,
#> #   pH_em_corr_corr_bkg <dbl>, bufferfactor <dbl>, cell_n <dbl>,
#> #   flagged_well <lgl>
…
